{"meta":{"pagination":{"total":1567,"pages":79,"page":1,"limit":20,"links":{"previous":null,"current":"https://gorest.co.in/public/v1/users?page=1","next":"https://gorest.co.in/public/v1/users?page=2"}}},"data":[{"id":41,"name":"Chandradev Trivedi","email":"trivedi_chandradev@sporer.biz","gender":"female","status":"active"},{"id":42,"name":"Advaya Bandopadhyay","email":"advaya_bandopadhyay@swaniawski.info","gender":"male","status":"inactive"},{"id":43,"name":"Acharyasuta Mehrotra II","email":"mehrotra_acharyasuta_ii@stamm.io","gender":"female","status":"active"},{"id":44,"name":"Bhagvan Khan","email":"khan_bhagvan@white.biz","gender":"male","status":"active"},{"id":45,"name":"Anil Varrier","email":"anil_varrier@klein.biz","gender":"female","status":"inactive"},{"id":46,"name":"Rev. Bhadran Menon","email":"bhadran_menon_rev@mckenzie.org","gender":"male","status":"active"},{"id":47,"name":"Anasooya Shah","email":"anasooya_shah@turcotte.biz","gender":"male","status":"inactive"},{"id":48,"name":"Deveshwar Menon","email":"deveshwar_menon@paucek.co","gender":"female","status":"active"},{"id":49,"name":"Bhagavaan Guha","email":"guha_bhagavaan@pollich.org","gender":"female","status":"active"},{"id":50,"name":"Satyen Tandon","email":"tandon_satyen@mante.biz","gender":"female","status":"active"},{"id":51,"name":"Miss Narinder Nambeesan","email":"narinder_miss_nambeesan@reichel-howe.co","gender":"male","status":"active"},{"id":52,"name":"Damodara Abbott","email":"abbott_damodara@weber.io","gender":"female","status":"inactive"},{"id":53,"name":"Opaline Ahuja V","email":"v_opaline_ahuja@kilback.net","gender":"female","status":"inactive"},{"id":54,"name":"Poornima Naik","email":"naik_poornima@rogahn-klocko.com","gender":"female","status":"active"},{"id":55,"name":"Akula Dwivedi DDS","email":"akula_dwivedi_dds@sporer.name","gender":"male","status":"active"},{"id":56,"name":"Miss Paramartha Kakkar","email":"kakkar_paramartha_miss@windler.org","gender":"female","status":"active"},{"id":57,"name":"Ganak Iyengar","email":"ganak_iyengar@mayer-miller.com","gender":"female","status":"active"},{"id":58,"name":"Bhisham Gandhi","email":"bhisham_gandhi@jast-skiles.name","gender":"female","status":"inactive"},{"id":59,"name":"Bhilangana Dhawan","email":"bhilangana_dhawan@orn.name","gender":"female","status":"inactive"},{"id":60,"name":"Ganapati Verma","email":"verma_ganapati@buckridge.org","gender":"female","status":"active"}]}